<?xml version="1.0" encoding="UTF-8" standalone="no"?>
<svg
   xmlns:dc="http://purl.org/dc/elements/1.1/"
   xmlns:cc="http://creativecommons.org/ns#"
   xmlns:rdf="http://www.w3.org/1999/02/22-rdf-syntax-ns#"
   xmlns:svg="http://www.w3.org/2000/svg"
   xmlns="http://www.w3.org/2000/svg"
   xmlns:xlink="http://www.w3.org/1999/xlink"
   xmlns:sodipodi="http://sodipodi.sourceforge.net/DTD/sodipodi-0.dtd"
   xmlns:inkscape="http://www.inkscape.org/namespaces/inkscape"
   width="90"
   height="90"
   viewBox="0 0 23.8125 23.812501"
   version="1.1"
   id="svg851"
   inkscape:version="1.0.1 (1.0.1+r73)"
   sodipodi:docname="lurker.svg">
  <defs
     id="defs845">
    <linearGradient
       gradientTransform="translate(24.008855,82.117422)"
       inkscape:collect="always"
       xlink:href="#linearGradient2502"
       id="linearGradient2504"
       x1="29.617802"
       y1="154.98792"
       x2="37.645214"
       y2="203.53896"
       gradientUnits="userSpaceOnUse" />
    <linearGradient
       inkscape:collect="always"
       id="linearGradient2502">
      <stop
         style="stop-color:#ff9e00;stop-opacity:0.23137255"
         offset="0"
         id="stop2498" />
      <stop
         style="stop-color:#f78b2b;stop-opacity:1"
         offset="1"
         id="stop2500" />
    </linearGradient>
    <linearGradient
       gradientTransform="translate(24.008855,82.117422)"
       inkscape:collect="always"
       xlink:href="#linearGradient2618"
       id="linearGradient2620"
       x1="34.742321"
       y1="206.00743"
       x2="34.329632"
       y2="181.26889"
       gradientUnits="userSpaceOnUse" />
    <linearGradient
       inkscape:collect="always"
       id="linearGradient2618">
      <stop
         style="stop-color:#ff0000;stop-opacity:0.49696967"
         offset="0"
         id="stop2614" />
      <stop
         style="stop-color:#ff0000;stop-opacity:0;"
         offset="1"
         id="stop2616" />
    </linearGradient>
    <linearGradient
       inkscape:collect="always"
       xlink:href="#linearGradient2600"
       id="linearGradient2594"
       x1="32.658195"
       y1="194.79332"
       x2="32.658195"
       y2="180.10939"
       gradientUnits="userSpaceOnUse"
       gradientTransform="matrix(1,0,0,1.1212121,24.008855,57.312788)" />
    <linearGradient
       id="linearGradient2600"
       inkscape:collect="always">
      <stop
         id="stop2596"
         offset="0"
         style="stop-color:#ff0000;stop-opacity:1" />
      <stop
         id="stop2598"
         offset="1"
         style="stop-color:#ff0000;stop-opacity:0.10909091" />
    </linearGradient>
    <linearGradient
       gradientTransform="translate(24.008855,82.117422)"
       inkscape:collect="always"
       xlink:href="#linearGradient2542"
       id="linearGradient2544"
       x1="35.814598"
       y1="205.42995"
       x2="35.149559"
       y2="193.924"
       gradientUnits="userSpaceOnUse" />
    <linearGradient
       inkscape:collect="always"
       id="linearGradient2542">
      <stop
         style="stop-color:#ff0000;stop-opacity:1"
         offset="0"
         id="stop2538" />
      <stop
         style="stop-color:#ad0000;stop-opacity:1"
         offset="1"
         id="stop2540" />
    </linearGradient>
    <linearGradient
       inkscape:collect="always"
       xlink:href="#linearGradient2608"
       id="linearGradient2610"
       x1="33.728783"
       y1="183.75996"
       x2="32.554195"
       y2="169.72832"
       gradientUnits="userSpaceOnUse"
       gradientTransform="translate(24.008855,81.588256)" />
    <linearGradient
       inkscape:collect="always"
       id="linearGradient2608">
      <stop
         style="stop-color:#ff0000;stop-opacity:0.74545455"
         offset="0"
         id="stop2604" />
      <stop
         style="stop-color:#ff0000;stop-opacity:0;"
         offset="1"
         id="stop2606" />
    </linearGradient>
    <linearGradient
       gradientTransform="translate(24.008855,82.117422)"
       inkscape:collect="always"
       xlink:href="#linearGradient2550"
       id="linearGradient2552"
       x1="38.85886"
       y1="186.01204"
       x2="45.88863"
       y2="169.47559"
       gradientUnits="userSpaceOnUse" />
    <linearGradient
       inkscape:collect="always"
       id="linearGradient2550">
      <stop
         style="stop-color:#f4b959;stop-opacity:1;"
         offset="0"
         id="stop2546" />
      <stop
         style="stop-color:#f4f4f4;stop-opacity:1"
         offset="1"
         id="stop2548" />
    </linearGradient>
    <linearGradient
       gradientTransform="translate(24.008855,82.117422)"
       inkscape:collect="always"
       xlink:href="#linearGradient2550"
       id="linearGradient2560"
       x1="27.398577"
       y1="185.38121"
       x2="17.253403"
       y2="172.01974"
       gradientUnits="userSpaceOnUse" />
    <linearGradient
       gradientTransform="translate(24.008855,82.117422)"
       inkscape:collect="always"
       xlink:href="#linearGradient2357"
       id="linearGradient2359"
       x1="34.905342"
       y1="196.869"
       x2="34.419804"
       y2="192.42564"
       gradientUnits="userSpaceOnUse" />
    <linearGradient
       inkscape:collect="always"
       id="linearGradient2357">
      <stop
         style="stop-color:#000000;stop-opacity:1;"
         offset="0"
         id="stop2353" />
      <stop
         style="stop-color:#000000;stop-opacity:0;"
         offset="1"
         id="stop2355" />
    </linearGradient>
    <linearGradient
       gradientTransform="translate(24.008855,82.117422)"
       inkscape:collect="always"
       xlink:href="#linearGradient2494"
       id="linearGradient2512"
       x1="7.6741204"
       y1="188.21599"
       x2="26.001343"
       y2="204.22328"
       gradientUnits="userSpaceOnUse" />
    <linearGradient
       inkscape:collect="always"
       id="linearGradient2494">
      <stop
         style="stop-color:#f4ba5a;stop-opacity:1;"
         offset="0"
         id="stop2490" />
      <stop
         style="stop-color:#f4ba5a;stop-opacity:0;"
         offset="1"
         id="stop2492" />
    </linearGradient>
    <linearGradient
       gradientTransform="translate(24.008855,82.117422)"
       inkscape:collect="always"
       xlink:href="#linearGradient2494"
       id="linearGradient2520"
       x1="55.141151"
       y1="179.26529"
       x2="42.450619"
       y2="202.8132"
       gradientUnits="userSpaceOnUse" />
    <linearGradient
       gradientTransform="translate(24.008855,82.117422)"
       inkscape:collect="always"
       xlink:href="#linearGradient2494"
       id="linearGradient2488"
       x1="51.743923"
       y1="157.3324"
       x2="53.716808"
       y2="146.35219"
       gradientUnits="userSpaceOnUse" />
    <linearGradient
       gradientTransform="translate(24.008855,82.117422)"
       inkscape:collect="always"
       xlink:href="#linearGradient2494"
       id="linearGradient2496"
       x1="7.9750371"
       y1="163.03412"
       x2="-6.2713556"
       y2="151.98776"
       gradientUnits="userSpaceOnUse" />
    <linearGradient
       gradientTransform="translate(24.008855,82.117427)"
       inkscape:collect="always"
       xlink:href="#linearGradient2550"
       id="linearGradient2560-8"
       x1="27.398577"
       y1="185.38121"
       x2="17.253403"
       y2="172.01974"
       gradientUnits="userSpaceOnUse" />
    <linearGradient
       gradientTransform="translate(24.008855,82.117422)"
       inkscape:collect="always"
       xlink:href="#linearGradient2628"
       id="linearGradient2630"
       x1="66.365875"
       y1="191.16661"
       x2="55.295578"
       y2="186.07338"
       gradientUnits="userSpaceOnUse" />
    <linearGradient
       inkscape:collect="always"
       id="linearGradient2628">
      <stop
         style="stop-color:#ff0000;stop-opacity:0.70909089"
         offset="0"
         id="stop2624" />
      <stop
         style="stop-color:#ff0000;stop-opacity:0;"
         offset="1"
         id="stop2626" />
    </linearGradient>
    <linearGradient
       gradientTransform="matrix(-1,0,0,1,90.469781,83.866003)"
       inkscape:collect="always"
       xlink:href="#linearGradient2628"
       id="linearGradient2630-0"
       x1="65.336891"
       y1="190.79243"
       x2="55.295578"
       y2="186.07338"
       gradientUnits="userSpaceOnUse" />
  </defs>
  <sodipodi:namedview
     id="base"
     pagecolor="#ffffff"
     bordercolor="#666666"
     borderopacity="1.0"
     inkscape:pageopacity="0.0"
     inkscape:pageshadow="2"
     inkscape:zoom="0.35"
     inkscape:cx="73.846135"
     inkscape:cy="98.369682"
     inkscape:document-units="px"
     inkscape:current-layer="layer1"
     inkscape:document-rotation="0"
     showgrid="false"
     units="px"
     inkscape:window-width="1534"
     inkscape:window-height="843"
     inkscape:window-x="66"
     inkscape:window-y="20"
     inkscape:window-maximized="1" />
  <metadata
     id="metadata848">
    <rdf:RDF>
      <cc:Work
         rdf:about="">
        <dc:format>image/svg+xml</dc:format>
        <dc:type
           rdf:resource="http://purl.org/dc/dcmitype/StillImage" />
        <dc:title></dc:title>
      </cc:Work>
    </rdf:RDF>
  </metadata>
  <g
     inkscape:label="Layer 1"
     inkscape:groupmode="layer"
     id="layer1"
     transform="translate(-86.294877,-122.13969)">
    <g
       id="g3243"
       transform="matrix(0.33106295,0.0265597,-0.0265597,0.33106295,86.31038,46.646611)"
       style="display:inline">
      <path
         sodipodi:nodetypes="cscccscsscccccccscc"
         inkscape:connector-curvature="0"
         id="path2220"
         d="m 37.452222,239.77643 c 0,0 7.805208,-2.77813 15.345833,-3.43959 7.540625,-0.66146 17.594792,1.32292 17.594792,1.32292 0,0 1.606753,-5.85225 2.613734,-7.01146 1.407387,-2.47516 1.034732,-3.9724 4.397724,-2.77812 0.661458,0.26458 4.894792,5.82083 4.497917,9.65729 -0.396875,3.83646 0,5.95312 0,5.95312 0,0 6.382099,9.92739 8.476067,18.25786 1.541603,6.13298 -0.302189,12.23618 -1.625108,15.80806 -1.322916,3.57187 -8.967629,7.20908 -12.142629,8.39971 -3.175,1.19062 -12.567708,2.64583 -18.653125,2.38125 -6.085416,-0.26459 -22.901367,-0.83914 -27.531575,-4.14644 -4.630207,-3.30729 -5.673627,-9.47961 -6.202797,-12.25773 -1.02558,-5.78355 0.26469,-15.65486 3.43958,-20.6375 0,0 -4.7625,-2.91042 -5.68854,-7.01146 -0.92605,-4.10104 -1.05834,-5.82083 -0.39688,-7.14375 0.66146,-1.32291 4.63021,-2.64583 8.995838,-1.71979 4.365625,0.92604 6.085417,5.15938 6.085417,5.15938 z"
         style="opacity:1;fill:#f7752b;fill-opacity:1;stroke:none;stroke-width:0.264583px;stroke-linecap:butt;stroke-linejoin:miter;stroke-opacity:1" />
      <path
         sodipodi:nodetypes="csccssccccccc"
         inkscape:connector-curvature="0"
         id="path2220-0"
         d="m 38.416632,239.36763 c 0,0 7.152195,-2.62772 14.061944,-3.25338 6.909747,-0.62564 16.122743,1.25131 16.122743,1.25131 4.775086,1.72806 6.602529,2.69788 10.546461,5.50569 0,0 5.848149,9.38992 7.766931,17.26939 1.412623,5.80094 -0.276908,11.57372 -1.489149,14.95222 -1.212239,3.3785 -8.217363,6.81879 -11.12673,7.94496 -2.909369,1.12616 -11.516249,2.50259 -17.092538,2.25233 -5.576287,-0.25026 -20.985352,-0.79371 -25.228179,-3.92195 -4.24283,-3.12824 -5.19895,-8.9664 -5.68385,-11.59411 -0.93977,-5.47043 0.24255,-14.80731 3.151814,-19.52019 2.121025,-6.1241 3.608723,-8.19363 8.243209,-10.13549 z"
         style="opacity:1;fill:url(#linearGradient2504);fill-opacity:1;stroke:none;stroke-width:0.246322px;stroke-linecap:butt;stroke-linejoin:miter;stroke-opacity:1" />
      <path
         sodipodi:nodetypes="cssccssscsccc"
         inkscape:connector-curvature="0"
         id="path2612"
         d="m 60.206386,288.59205 c 0,0 -12.832291,-0.13229 -22.092708,-1.71979 -9.260416,-1.5875 -13.096873,-8.86354 -13.626043,-11.37709 -0.52917,-2.51354 -1.5875,-10.31874 1.05833,-10.71562 2.64584,-0.39687 4.894797,-1.71979 6.350005,1.71979 1.455208,3.43959 10.715625,14.81667 17.727082,14.81667 7.011459,0 15.345834,3.43958 19.05,1.05833 3.704167,-2.38125 12.435417,-12.56771 12.7,-15.47812 0.264584,-2.91042 1.5875,-6.21771 4.630209,-6.48229 3.042708,-0.26459 6.35,5.82083 5.159375,10.31875 -1.190625,4.49791 -0.595313,7.01146 -7.9375,12.43541 -8.929688,4.29948 -13.229167,4.49792 -17.330209,4.89479 -4.101041,0.39688 -5.688541,0.52917 -5.688541,0.52917 z"
         style="fill:url(#linearGradient2620);fill-opacity:1;stroke:none;stroke-width:0.264583px;stroke-linecap:butt;stroke-linejoin:miter;stroke-opacity:1" />
      <ellipse
         ry="13.844562"
         rx="16.83798"
         cy="272.9111"
         cx="58.163765"
         id="path2586"
         style="opacity:0.287;fill:url(#linearGradient2594);fill-opacity:1;stroke:none;stroke-width:0.938162;stroke-linecap:round;stroke-linejoin:round;stroke-miterlimit:4;stroke-dasharray:none;stroke-dashoffset:0;stroke-opacity:1;paint-order:markers fill stroke" />
      <path
         sodipodi:nodetypes="csssccc"
         inkscape:connector-curvature="0"
         id="path2326"
         d="m 48.896824,278.53788 c 0,0 4.315108,10.05417 7.858223,10.71563 3.543112,0.66146 5.287656,0.46302 7.402571,-0.66146 1.621964,-0.86238 5.68979,-9.525 5.535742,-12.17084 -0.154049,-2.64583 -2.772871,-4.49791 -8.780759,-4.89478 -6.007888,-0.39688 -8.010517,1.98437 -9.705052,3.17499 -1.694529,1.19063 -2.310725,3.83646 -2.310725,3.83646 z"
         style="fill:#ebe5eb;fill-opacity:1;stroke:none;stroke-width:0.285512px;stroke-linecap:butt;stroke-linejoin:miter;stroke-opacity:1" />
      <path
         inkscape:connector-curvature="0"
         id="path2290"
         d="m 50.591356,276.6858 c 0,0 3.620138,10.31875 7.933494,10.78177 4.313357,0.46302 5.391695,-1.5875 6.161937,-3.43958 0.770242,-1.85209 2.77287,-10.3849 2.77287,-10.3849 z"
         style="opacity:1;fill:url(#linearGradient2544);fill-opacity:1;stroke:#000000;stroke-width:0.886;stroke-linecap:butt;stroke-linejoin:miter;stroke-miterlimit:4;stroke-dasharray:none;stroke-opacity:1" />
      <path
         inkscape:connector-curvature="0"
         id="path2602"
         d="m 47.499706,255.35686 c 0,0 -11.973677,-4.11595 -9.167347,-9.9157 2.806332,-5.79975 16.650892,-11.5995 24.134439,-8.04482 7.483546,3.55469 12.347853,8.79317 7.483546,14.21874 -4.864306,5.42558 -8.606078,11.41241 -8.231902,14.78001 0.37418,3.3676 -7.483546,3.3676 -8.606078,0.18709 -1.122532,-3.18051 -0.748355,-6.73519 -2.245063,-8.60608 -1.496711,-1.87089 -3.367595,-2.61924 -3.367595,-2.61924 z"
         style="fill:url(#linearGradient2610);fill-opacity:1;stroke:none;stroke-width:0.264583px;stroke-linecap:butt;stroke-linejoin:miter;stroke-opacity:1" />
      <path
         sodipodi:nodetypes="sscssccs"
         inkscape:connector-curvature="0"
         id="path2292"
         d="m 61.01686,265.05337 c -0.979106,-1.86954 -0.888669,-6.12715 0.374179,-8.88671 1.262848,-2.75956 4.723987,-6.17393 6.407785,-6.2207 1.683798,-0.0468 5.051396,1.12254 4.396584,4.2095 -0.654809,3.08696 -3.554685,3.41437 -3.928861,4.72399 -0.374177,1.30962 0.841898,3.46114 0.187089,5.05139 -0.654812,1.59025 -2.245064,3.50791 -3.835318,3.32082 -1.590254,-0.18708 -3.211581,-1.45385 -3.601458,-2.19829 z"
         style="opacity:1;fill:url(#linearGradient2552);fill-opacity:1;stroke:none;stroke-width:0.264583px;stroke-linecap:butt;stroke-linejoin:miter;stroke-opacity:1" />
      <circle
         r="3.1088541"
         cy="263.32434"
         cx="64.7043"
         id="path2237"
         style="opacity:1;fill:#0c0905;fill-opacity:1;stroke:none;stroke-width:0.565;stroke-linecap:round;stroke-linejoin:round;stroke-miterlimit:4;stroke-dasharray:none;stroke-dashoffset:0;stroke-opacity:1" />
      <path
         sodipodi:nodetypes="sscssccs"
         inkscape:connector-curvature="0"
         id="path2292-7"
         d="m 53.960698,264.61222 c 0.06454,-2.10942 -1.875833,-5.90025 -4.216845,-7.83146 -2.341023,-1.93122 -6.945626,-3.49168 -8.480861,-2.79856 -1.535247,0.6931 -4.054303,3.21549 -2.117344,5.70673 1.936956,2.49124 4.68876,1.51962 5.597205,2.53443 0.908445,1.01481 0.753836,3.48138 2.037283,4.62612 1.283446,1.14474 3.551412,2.17559 4.900385,1.31292 1.348968,-0.86266 2.25447,-2.71022 2.280177,-3.55018 z"
         style="opacity:1;fill:url(#linearGradient2560);fill-opacity:1;stroke:none;stroke-width:0.264583px;stroke-linecap:butt;stroke-linejoin:miter;stroke-opacity:1" />
      <circle
         r="3.1088541"
         cy="265.24258"
         cx="50.416809"
         id="path2237-9"
         style="opacity:1;fill:#0c0905;fill-opacity:1;stroke:none;stroke-width:0.565;stroke-linecap:round;stroke-linejoin:round;stroke-miterlimit:4;stroke-dasharray:none;stroke-dashoffset:0;stroke-opacity:1" />
      <circle
         r="1.1906248"
         cy="264.64728"
         cx="50.813683"
         id="path2237-9-1"
         style="opacity:1;fill:#ffffff;fill-opacity:1;stroke:none;stroke-width:0.216383;stroke-linecap:round;stroke-linejoin:round;stroke-miterlimit:4;stroke-dasharray:none;stroke-dashoffset:0;stroke-opacity:1" />
      <path
         sodipodi:nodetypes="csssscscsscc"
         inkscape:connector-curvature="0"
         id="path2284"
         d="m 59.295092,265.11028 c 0,0 -4.467405,-0.19844 -8.010517,2.51354 -3.543115,2.71198 -4.236331,4.96094 -4.467404,7.40833 -0.231072,2.4474 1.925605,5.15938 4.852526,5.15938 2.926919,0 6.701105,0.66146 7.240275,-3.04271 0.539171,-3.70417 -0.616196,-3.37344 -0.616196,-3.37344 0,0 -2.639195,3.61531 1.585746,5.09323 2.836389,0.99219 5.340776,0.7503 8.55935,-0.49512 0,0 4.165092,-1.80782 1.485556,-6.58248 -1.313156,-2.33991 -4.159308,-4.7625 -6.77813,-5.68854 -2.618822,-0.92604 -3.851209,-0.99219 -3.851209,-0.99219 z"
         style="opacity:1;fill:#eeeeee;fill-opacity:1;stroke:url(#linearGradient2359);stroke-width:0.586;stroke-linecap:round;stroke-linejoin:round;stroke-miterlimit:4;stroke-dasharray:none;stroke-opacity:1;paint-order:markers fill stroke" />
      <circle
         r="1.1906248"
         cy="262.72903"
         cx="65.167328"
         id="path2237-9-1-2"
         style="opacity:1;fill:#ffffff;fill-opacity:1;stroke:none;stroke-width:0.216383;stroke-linecap:round;stroke-linejoin:round;stroke-miterlimit:4;stroke-dasharray:none;stroke-dashoffset:0;stroke-opacity:1" />
      <path
         sodipodi:nodetypes="csssscscsscc"
         inkscape:connector-curvature="0"
         id="path2284-1"
         d="m 59.412575,265.07573 c 0,0 -4.024715,-0.15509 -7.21673,1.96445 -3.192023,2.11953 -3.816551,3.87719 -4.024723,5.78993 -0.208171,1.91275 1.734796,4.03228 4.371682,4.03228 2.636879,0 6.037072,0.51696 6.522815,-2.37801 0.485743,-2.89497 -0.555136,-2.63649 -0.555136,-2.63649 0,0 -2.37767,2.82552 1.42861,3.98058 2.555327,0.77544 4.811546,0.58639 7.711183,-0.38696 0,0 3.752364,-1.41289 1.33835,-5.14449 -1.183034,-1.82875 -3.747153,-3.72211 -6.106469,-4.44585 -2.359319,-0.72374 -3.469585,-0.77544 -3.469585,-0.77544 z"
         style="opacity:1;fill:#ffffff;fill-opacity:1;stroke:none;stroke-width:0.491716;stroke-linecap:round;stroke-linejoin:round;stroke-miterlimit:4;stroke-dasharray:none;stroke-opacity:1;paint-order:markers fill stroke" />
      <path
         sodipodi:nodetypes="sscss"
         inkscape:connector-curvature="0"
         id="path2288"
         d="m 58.256057,278.21655 c 0.735711,0.12733 4.008364,0.0587 3.836459,-1.91822 -0.132292,-1.52136 -1.918227,-4.63021 -3.836456,-4.56406 -1.918232,0.0661 -4.233336,3.50572 -3.307294,5.09322 0.926041,1.5875 3.307291,1.38906 3.307291,1.38906 z"
         style="opacity:1;fill:#000000;fill-opacity:1;stroke:none;stroke-width:0.264583px;stroke-linecap:butt;stroke-linejoin:miter;stroke-opacity:1" />
      <path
         sodipodi:nodetypes="ccssccc"
         inkscape:connector-curvature="0"
         id="path2309"
         d="m 33.842232,262.43413 c -2.057974,1.12253 -4.115951,5.61266 -2.80633,8.04481 1.309621,2.43216 0.521377,7.99002 9.354434,10.28988 5.262988,1.37032 5.627769,2.63078 6.024644,2.03547 0.396875,-0.59531 -4.398698,-4.72943 -4.332552,-7.30912 0.06615,-2.57968 1.190625,-2.18281 2.116667,-3.63802 2.047265,-3.89961 -8.193724,-10.35983 -10.356863,-9.42302 z"
         style="opacity:1;fill:url(#linearGradient2512);fill-opacity:1;stroke:none;stroke-width:0.264583px;stroke-linecap:butt;stroke-linejoin:miter;stroke-opacity:1" />
      <path
         sodipodi:nodetypes="ccssccc"
         inkscape:connector-curvature="0"
         id="path2309-0"
         d="m 79.346992,260.03876 c 1.678379,0.87551 3.873162,5.07879 3.287602,7.63092 -0.05639,6.78547 -4.198059,8.53935 -7.385315,11.49521 -3.187247,2.95586 -3.715573,3.23886 -4.097335,2.69566 -0.381762,-0.54319 3.039004,-2.69566 3.108529,-7.97933 -0.443992,-2.54166 -0.147815,-2.02176 -1.04874,-3.35458 -2.096389,-3.62097 4.40839,-11.16793 6.135259,-10.48788 z"
         style="opacity:1;fill:url(#linearGradient2520);fill-opacity:1;stroke:none;stroke-width:0.227705px;stroke-linecap:butt;stroke-linejoin:miter;stroke-opacity:1" />
      <path
         sodipodi:nodetypes="cssscsc"
         inkscape:connector-curvature="0"
         id="path2328"
         d="m 71.914198,238.91653 c 0,0 0.132292,-1.5875 2.116667,-4.43177 1.984375,-2.84427 2.315104,-5.22552 3.108854,-4.16719 0.79375,1.05833 2.579688,4.36563 2.182813,7.67292 -0.396875,3.30729 -0.396875,4.7625 -0.396875,4.7625 0,0 -2.050521,-1.7198 -4.101042,-2.77813 -2.050521,-1.05833 -2.910417,-1.05833 -2.910417,-1.05833 z"
         style="fill:url(#linearGradient2488);fill-opacity:1;stroke:none;stroke-width:0.264583px;stroke-linecap:butt;stroke-linejoin:miter;stroke-opacity:1" />
      <path
         sodipodi:nodetypes="ccssccc"
         inkscape:connector-curvature="0"
         id="path2330"
         d="m 29.324705,250.44927 c 0,0 -3.56036,-2.69008 -4.68289,-5.40286 -1.12253,-2.71279 -2.0249,-6.93381 -0.80883,-7.21444 1.21608,-0.28063 7.577094,0 9.541525,1.6838 1.96443,1.6838 2.288513,1.46834 2.288513,1.46834 0,0 -2.230794,1.38046 -3.166239,2.69576 -0.935443,1.21608 -3.172079,6.7694 -3.172079,6.7694 z"
         style="fill:url(#linearGradient2496);fill-opacity:1;stroke:none;stroke-width:0.264583px;stroke-linecap:butt;stroke-linejoin:miter;stroke-opacity:1" />
      <path
         sodipodi:nodetypes="ccszc"
         inkscape:connector-curvature="0"
         id="path2292-7-2"
         d="m 49.743851,256.78076 c -2.341023,-1.93122 -6.945622,-3.49168 -8.480862,-2.79856 -1.53525,0.6931 -4.0543,3.21549 -2.11734,5.70673 1.93695,2.49124 6.702254,-3.30954 9.666379,-1.58152 2.964124,1.72802 4.397666,1.45711 0.931823,-1.32665 z"
         style="opacity:1;fill:url(#linearGradient2560-8);fill-opacity:1;stroke:none;stroke-width:0.264583px;stroke-linecap:butt;stroke-linejoin:miter;stroke-opacity:1" />
      <path
         sodipodi:nodetypes="zssccz"
         inkscape:connector-curvature="0"
         id="path2622"
         d="m 90.717186,264.86628 c -0.210873,-2.24614 -5.051393,-6.92228 -7.670633,-5.05139 -2.619243,1.87089 -13.657475,21.5152 -10.476966,25.44406 3.180506,3.92886 12.920467,-3.5093 14.780003,-5.98684 2.057977,-1.6838 3.554685,-7.67064 3.741775,-9.35443 0.187087,-1.6838 -0.163306,-2.80526 -0.374179,-5.0514 z"
         style="fill:url(#linearGradient2630);fill-opacity:1;stroke:none;stroke-width:0.264583px;stroke-linecap:butt;stroke-linejoin:miter;stroke-opacity:1" />
      <path
         sodipodi:nodetypes="zssccz"
         inkscape:connector-curvature="0"
         id="path2622-7"
         d="m 23.761455,266.61486 c 0.21087,-2.24614 5.051391,-6.92228 7.670631,-5.05139 2.619243,1.87089 15.531242,25.36748 10.476965,25.44406 -6.173929,0.0935 -11.693041,-1.59026 -14.780006,-5.98684 -1.87088,-3.27405 -1.96443,-5.42558 -2.99342,-9.54152 -0.18708,-1.6838 -0.58505,-2.61817 -0.37417,-4.86431 z"
         style="fill:url(#linearGradient2630-0);fill-opacity:1;stroke:none;stroke-width:0.264583px;stroke-linecap:butt;stroke-linejoin:miter;stroke-opacity:1" />
    </g>
  </g>
</svg>
